
==================================================================================================
####################################### iSPICE Test Result #######################################
==================================================================================================


+--------------------------------- Netlist ----------------------------------+

Netlist from ./benchmark/representative.txt: 
	r1 a b 2
	r2 b 0 3
	e1 c 0 a b 4
	i1 0 d 5
	r3 c d 6
	r4 d 0 7
	f1 0 e v1 8
	r5 e f 9
	r6 f 0 10
	h1 g 0 v1 11
	r7 g h 11
	r8 h 0 12
	g9 g h e f 13
	v1 a 0 1
	.op
	.end

+----------------------------- ++++++++++++++++++ -----------------------------+


+------------------------- Linear System Solver Summary -------------------------+

Matrix A: 
	[ 0.500000	-0.500000	0.000000	0.000000	0.000000	0.000000	0.000000	0.000000	0.000000	0.000000	1.000000	 ]
	[ -0.500000	0.833333	0.000000	0.000000	0.000000	0.000000	0.000000	0.000000	0.000000	0.000000	0.000000	 ]
	[ 0.000000	0.000000	0.166667	-0.166667	0.000000	0.000000	0.000000	0.000000	1.000000	0.000000	0.000000	 ]
	[ 0.000000	0.000000	-0.166667	0.309524	0.000000	0.000000	0.000000	0.000000	0.000000	0.000000	0.000000	 ]
	[ 0.000000	0.000000	0.000000	0.000000	0.111111	-0.111111	0.000000	0.000000	0.000000	0.000000	-8.000000	 ]
	[ 0.000000	0.000000	0.000000	0.000000	-0.111111	0.211111	0.000000	0.000000	0.000000	0.000000	0.000000	 ]
	[ 0.000000	0.000000	0.000000	0.000000	13.000000	-13.000000	0.090909	-0.090909	0.000000	1.000000	0.000000	 ]
	[ 0.000000	0.000000	0.000000	0.000000	-13.000000	13.000000	-0.090909	0.174242	0.000000	0.000000	0.000000	 ]
	[ -4.000000	4.000000	1.000000	0.000000	0.000000	0.000000	0.000000	0.000000	0.000000	0.000000	0.000000	 ]
	[ 0.000000	0.000000	0.000000	0.000000	0.000000	0.000000	1.000000	0.000000	0.000000	0.000000	-11.000000	 ]
	[ 1.000000	0.000000	0.000000	0.000000	0.000000	0.000000	0.000000	0.000000	0.000000	0.000000	0.000000	 ]

Vector B: 
	[ 0.000000 ]
	[ 0.000000 ]
	[ 0.000000 ]
	[ 5.000000 ]
	[ 0.000000 ]
	[ 0.000000 ]
	[ 0.000000 ]
	[ 0.000000 ]
	[ 0.000000 ]
	[ 0.000000 ]
	[ 1.000000 ]

Matrix LU: 
	[ 0.500000	-1.000000	0.000000	0.000000	0.000000	0.000000	0.000000	0.000000	0.000000	0.000000	2.000000	 ]
	[ -0.500000	0.333333	0.000000	0.000000	0.000000	0.000000	0.000000	0.000000	0.000000	0.000000	3.000000	 ]
	[ 0.000000	0.000000	0.166667	-1.000000	0.000000	0.000000	0.000000	0.000000	6.000000	0.000000	0.000000	 ]
	[ 0.000000	0.000000	-0.166667	0.142857	0.000000	0.000000	0.000000	0.000000	7.000000	0.000000	0.000000	 ]
	[ 0.000000	0.000000	0.000000	0.000000	0.111111	-1.000000	0.000000	0.000000	0.000000	0.000000	-72.000000	 ]
	[ 0.000000	0.000000	0.000000	0.000000	-0.111111	0.100000	0.000000	0.000000	0.000000	0.000000	-80.000000	 ]
	[ 0.000000	0.000000	0.000000	0.000000	13.000000	0.000000	0.090909	-1.000000	0.000000	11.000000	10296.000000	 ]
	[ 0.000000	0.000000	0.000000	0.000000	-13.000000	0.000000	-0.090909	0.083333	0.000000	12.000000	0.000000	 ]
	[ -4.000000	0.000000	1.000000	1.000000	0.000000	0.000000	0.000000	0.000000	-13.000000	0.000000	-0.615385	 ]
	[ 0.000000	0.000000	0.000000	0.000000	0.000000	0.000000	1.000000	1.000000	0.000000	-23.000000	448.130435	 ]
	[ 1.000000	1.000000	0.000000	0.000000	0.000000	0.000000	0.000000	0.000000	0.000000	0.000000	-5.000000	 ]

Vector Y: 
	[ 0.000000 ]
	[ 0.000000 ]
	[ 0.000000 ]
	[ 35.000000 ]
	[ 0.000000 ]
	[ 0.000000 ]
	[ 0.000000 ]
	[ 0.000000 ]
	[ 2.692308 ]
	[ 0.000000 ]
	[ -0.200000 ]

Vector X: 
	[ 1.000000 ]
	[ 0.600000 ]
	[ 1.600000 ]
	[ 17.015385 ]
	[ -30.400000 ]
	[ -16.000000 ]
	[ -2.200000 ]
	[ -1075.513043 ]
	[ 2.569231 ]
	[ 89.626087 ]
	[ -0.200000 ]

+----------------------------- ++++++++++++++++++ -----------------------------+


+------------------------- DC Analysis Report -------------------------+

DC Operating Voltages: 
	Node	Voltage Lvl
          1:	1.000000 V
          2:	0.600000 V
          3:	1.600000 V
          4:	17.015385 V
          5:	-30.400000 V
          6:	-16.000000 V
          7:	-2.200000 V
          8:	-1075.513043 V

DC Operating Currents: 
	Component	Current
		e1:	2.5692 A
		h1:	89.6261 A
		v1:	-0.2000 A

+------------------------- ++++++++++++++++++ -------------------------+


==================================================================================================
##################################################################################################
==================================================================================================

